<?xml version="1.0" encoding="utf-8"?>
<!DOCTYPE eagle SYSTEM "eagle.dtd">
<eagle version="9.3.0">
<drawing>
<settings>
<setting alwaysvectorfont="no"/>
<setting verticaltext="up"/>
</settings>
<grid distance="0.1" unitdist="inch" unit="inch" style="lines" multiple="1" display="no" altdistance="0.01" altunitdist="inch" altunit="inch"/>
<layers>
<layer number="1" name="Top" color="4" fill="1" visible="no" active="no"/>
<layer number="2" name="Route2" color="1" fill="3" visible="no" active="no"/>
<layer number="3" name="Route3" color="4" fill="3" visible="no" active="no"/>
<layer number="4" name="Route4" color="1" fill="4" visible="no" active="no"/>
<layer number="5" name="Route5" color="4" fill="4" visible="no" active="no"/>
<layer number="6" name="Route6" color="1" fill="8" visible="no" active="no"/>
<layer number="7" name="Route7" color="4" fill="8" visible="no" active="no"/>
<layer number="8" name="Route8" color="1" fill="2" visible="no" active="no"/>
<layer number="9" name="Route9" color="4" fill="2" visible="no" active="no"/>
<layer number="10" name="Route10" color="1" fill="7" visible="no" active="no"/>
<layer number="11" name="Route11" color="4" fill="7" visible="no" active="no"/>
<layer number="12" name="Route12" color="1" fill="5" visible="no" active="no"/>
<layer number="13" name="Route13" color="4" fill="5" visible="no" active="no"/>
<layer number="14" name="Route14" color="1" fill="6" visible="no" active="no"/>
<layer number="15" name="Route15" color="4" fill="6" visible="no" active="no"/>
<layer number="16" name="Bottom" color="1" fill="1" visible="no" active="no"/>
<layer number="17" name="Pads" color="2" fill="1" visible="no" active="no"/>
<layer number="18" name="Vias" color="2" fill="1" visible="no" active="no"/>
<layer number="19" name="Unrouted" color="6" fill="1" visible="no" active="no"/>
<layer number="20" name="Dimension" color="15" fill="1" visible="no" active="no"/>
<layer number="21" name="tPlace" color="7" fill="1" visible="no" active="no"/>
<layer number="22" name="bPlace" color="7" fill="1" visible="no" active="no"/>
<layer number="23" name="tOrigins" color="15" fill="1" visible="no" active="no"/>
<layer number="24" name="bOrigins" color="15" fill="1" visible="no" active="no"/>
<layer number="25" name="tNames" color="7" fill="1" visible="no" active="no"/>
<layer number="26" name="bNames" color="7" fill="1" visible="no" active="no"/>
<layer number="27" name="tValues" color="7" fill="1" visible="no" active="no"/>
<layer number="28" name="bValues" color="7" fill="1" visible="no" active="no"/>
<layer number="29" name="tStop" color="7" fill="3" visible="no" active="no"/>
<layer number="30" name="bStop" color="7" fill="6" visible="no" active="no"/>
<layer number="31" name="tCream" color="7" fill="4" visible="no" active="no"/>
<layer number="32" name="bCream" color="7" fill="5" visible="no" active="no"/>
<layer number="33" name="tFinish" color="6" fill="3" visible="no" active="no"/>
<layer number="34" name="bFinish" color="6" fill="6" visible="no" active="no"/>
<layer number="35" name="tGlue" color="7" fill="4" visible="no" active="no"/>
<layer number="36" name="bGlue" color="7" fill="5" visible="no" active="no"/>
<layer number="37" name="tTest" color="7" fill="1" visible="no" active="no"/>
<layer number="38" name="bTest" color="7" fill="1" visible="no" active="no"/>
<layer number="39" name="tKeepout" color="4" fill="11" visible="no" active="no"/>
<layer number="40" name="bKeepout" color="1" fill="11" visible="no" active="no"/>
<layer number="41" name="tRestrict" color="4" fill="10" visible="no" active="no"/>
<layer number="42" name="bRestrict" color="1" fill="10" visible="no" active="no"/>
<layer number="43" name="vRestrict" color="2" fill="10" visible="no" active="no"/>
<layer number="44" name="Drills" color="7" fill="1" visible="no" active="no"/>
<layer number="45" name="Holes" color="7" fill="1" visible="no" active="no"/>
<layer number="46" name="Milling" color="3" fill="1" visible="no" active="no"/>
<layer number="47" name="Measures" color="7" fill="1" visible="no" active="no"/>
<layer number="48" name="Document" color="7" fill="1" visible="no" active="no"/>
<layer number="49" name="Reference" color="7" fill="1" visible="no" active="no"/>
<layer number="51" name="tDocu" color="7" fill="1" visible="no" active="no"/>
<layer number="52" name="bDocu" color="7" fill="1" visible="no" active="no"/>
<layer number="88" name="SimResults" color="9" fill="1" visible="yes" active="yes"/>
<layer number="89" name="SimProbes" color="9" fill="1" visible="yes" active="yes"/>
<layer number="90" name="Modules" color="5" fill="1" visible="yes" active="yes"/>
<layer number="91" name="Nets" color="2" fill="1" visible="yes" active="yes"/>
<layer number="92" name="Busses" color="1" fill="1" visible="yes" active="yes"/>
<layer number="93" name="Pins" color="2" fill="1" visible="no" active="yes"/>
<layer number="94" name="Symbols" color="4" fill="1" visible="yes" active="yes"/>
<layer number="95" name="Names" color="7" fill="1" visible="yes" active="yes"/>
<layer number="96" name="Values" color="7" fill="1" visible="yes" active="yes"/>
<layer number="97" name="Info" color="7" fill="1" visible="yes" active="yes"/>
<layer number="98" name="Guide" color="6" fill="1" visible="yes" active="yes"/>
</layers>
<schematic xreflabel="%F%N/%S.%C%R" xrefpart="/%S.%C%R">
<libraries>
<library name="frames" urn="urn:adsk.eagle:library:229">
<description>&lt;b&gt;Frames for Sheet and Layout&lt;/b&gt;</description>
<packages>
</packages>
<symbols>
<symbol name="DINA4_L" urn="urn:adsk.eagle:symbol:13867/1" library_version="1">
<frame x1="0" y1="0" x2="264.16" y2="180.34" columns="4" rows="4" layer="94" border-left="no" border-top="no" border-right="no" border-bottom="no"/>
</symbol>
<symbol name="DOCFIELD" urn="urn:adsk.eagle:symbol:13864/1" library_version="1">
<wire x1="0" y1="0" x2="71.12" y2="0" width="0.1016" layer="94"/>
<wire x1="101.6" y1="15.24" x2="87.63" y2="15.24" width="0.1016" layer="94"/>
<wire x1="0" y1="0" x2="0" y2="5.08" width="0.1016" layer="94"/>
<wire x1="0" y1="5.08" x2="71.12" y2="5.08" width="0.1016" layer="94"/>
<wire x1="0" y1="5.08" x2="0" y2="15.24" width="0.1016" layer="94"/>
<wire x1="101.6" y1="15.24" x2="101.6" y2="5.08" width="0.1016" layer="94"/>
<wire x1="71.12" y1="5.08" x2="71.12" y2="0" width="0.1016" layer="94"/>
<wire x1="71.12" y1="5.08" x2="87.63" y2="5.08" width="0.1016" layer="94"/>
<wire x1="71.12" y1="0" x2="101.6" y2="0" width="0.1016" layer="94"/>
<wire x1="87.63" y1="15.24" x2="87.63" y2="5.08" width="0.1016" layer="94"/>
<wire x1="87.63" y1="15.24" x2="0" y2="15.24" width="0.1016" layer="94"/>
<wire x1="87.63" y1="5.08" x2="101.6" y2="5.08" width="0.1016" layer="94"/>
<wire x1="101.6" y1="5.08" x2="101.6" y2="0" width="0.1016" layer="94"/>
<wire x1="0" y1="15.24" x2="0" y2="22.86" width="0.1016" layer="94"/>
<wire x1="101.6" y1="35.56" x2="0" y2="35.56" width="0.1016" layer="94"/>
<wire x1="101.6" y1="35.56" x2="101.6" y2="22.86" width="0.1016" layer="94"/>
<wire x1="0" y1="22.86" x2="101.6" y2="22.86" width="0.1016" layer="94"/>
<wire x1="0" y1="22.86" x2="0" y2="35.56" width="0.1016" layer="94"/>
<wire x1="101.6" y1="22.86" x2="101.6" y2="15.24" width="0.1016" layer="94"/>
<text x="1.27" y="1.27" size="2.54" layer="94">Date:</text>
<text x="12.7" y="1.27" size="2.54" layer="94">&gt;LAST_DATE_TIME</text>
<text x="72.39" y="1.27" size="2.54" layer="94">Sheet:</text>
<text x="86.36" y="1.27" size="2.54" layer="94">&gt;SHEET</text>
<text x="88.9" y="11.43" size="2.54" layer="94">REV:</text>
<text x="1.27" y="19.05" size="2.54" layer="94">TITLE:</text>
<text x="1.27" y="11.43" size="2.54" layer="94">Document Number:</text>
<text x="17.78" y="19.05" size="2.54" layer="94">&gt;DRAWING_NAME</text>
</symbol>
</symbols>
<devicesets>
<deviceset name="DINA4_L" urn="urn:adsk.eagle:component:13919/1" prefix="FRAME" uservalue="yes" library_version="1">
<description>&lt;b&gt;FRAME&lt;/b&gt;&lt;p&gt;
DIN A4, landscape with extra doc field</description>
<gates>
<gate name="G$1" symbol="DINA4_L" x="0" y="0"/>
<gate name="G$2" symbol="DOCFIELD" x="162.56" y="0" addlevel="must"/>
</gates>
<devices>
<device name="">
<technologies>
<technology name=""/>
</technologies>
</device>
</devices>
</deviceset>
</devicesets>
</library>
<library name="microusb">
<packages>
<package name="MICRO-USB">
<smd name="PAD3" x="0" y="0" dx="0.4" dy="1.35" layer="1"/>
<smd name="PAD2" x="-0.65" y="0" dx="0.4" dy="1.35" layer="1" rot="R180"/>
<smd name="PAD4" x="0.65" y="0" dx="0.4" dy="1.35" layer="1"/>
<smd name="PAD1" x="-1.3" y="0" dx="0.4" dy="1.35" layer="1"/>
<smd name="PAD5" x="1.3" y="0" dx="0.4" dy="1.35" layer="1"/>
<pad name="PIN2" x="-2.425" y="0" drill="0.7" diameter="1.5" rot="R180"/>
<pad name="PIN3" x="2.425" y="0" drill="0.7" diameter="1.5"/>
<pad name="PIN1" x="-3.625" y="2.65" drill="1.1" diameter="1.9" rot="R270"/>
<pad name="PIN4" x="3.625" y="2.65" drill="1.1" diameter="1.9" rot="R180"/>
<wire x1="-3.85" y1="0" x2="-3.85" y2="4.75" width="0" layer="51"/>
<wire x1="-3.85" y1="4.75" x2="3.85" y2="4.75" width="0" layer="51"/>
<wire x1="3.85" y1="4.75" x2="3.85" y2="0" width="0" layer="51"/>
<wire x1="3.85" y1="0" x2="-3.85" y2="0" width="0" layer="51"/>
<text x="-1.2" y="4.8" size="0.3048" layer="25">&gt;NAME</text>
<text x="-1.3" y="-1.1" size="0.3048" layer="27">&gt;VALUE</text>
</package>
</packages>
<symbols>
<symbol name="MICRO-USB">
<pin name="VCC" x="-10.16" y="10.16" length="middle" direction="pwr"/>
<pin name="D-" x="-10.16" y="5.08" length="middle"/>
<pin name="D+" x="-10.16" y="0" length="middle"/>
<pin name="NC" x="-10.16" y="-5.08" length="middle" direction="nc"/>
<pin name="GND" x="-10.16" y="-10.16" length="middle" direction="pwr"/>
<pin name="CASE_GND_4" x="10.16" y="-7.62" length="middle" rot="R180"/>
<pin name="CASE_GND_3" x="10.16" y="-2.54" length="middle" rot="R180"/>
<pin name="CASE_GND_2" x="10.16" y="2.54" length="middle" rot="R180"/>
<pin name="CASE_GND_1" x="10.16" y="7.62" length="middle" rot="R180"/>
<wire x1="-5.08" y1="-12.7" x2="-5.08" y2="12.7" width="0.254" layer="94"/>
<wire x1="-5.08" y1="12.7" x2="5.08" y2="12.7" width="0.254" layer="94"/>
<wire x1="5.08" y1="12.7" x2="5.08" y2="-12.7" width="0.254" layer="94"/>
<wire x1="5.08" y1="-12.7" x2="-5.08" y2="-12.7" width="0.254" layer="94"/>
<text x="-5.08" y="12.7" size="1.778" layer="95">&gt;NAME</text>
<text x="-5.08" y="-15.24" size="1.778" layer="96">&gt;VALUE</text>
</symbol>
</symbols>
<devicesets>
<deviceset name="MICRO-USB" prefix="CON">
<gates>
<gate name="G$1" symbol="MICRO-USB" x="0" y="0"/>
</gates>
<devices>
<device name="SMD" package="MICRO-USB">
<connects>
<connect gate="G$1" pin="CASE_GND_1" pad="PIN1"/>
<connect gate="G$1" pin="CASE_GND_2" pad="PIN2"/>
<connect gate="G$1" pin="CASE_GND_3" pad="PIN3"/>
<connect gate="G$1" pin="CASE_GND_4" pad="PIN4"/>
<connect gate="G$1" pin="D+" pad="PAD3"/>
<connect gate="G$1" pin="D-" pad="PAD4"/>
<connect gate="G$1" pin="GND" pad="PAD1"/>
<connect gate="G$1" pin="NC" pad="PAD2"/>
<connect gate="G$1" pin="VCC" pad="PAD5"/>
</connects>
<technologies>
<technology name=""/>
</technologies>
</device>
</devices>
</deviceset>
</devicesets>
</library>
<library name="con-lstb" urn="urn:adsk.eagle:library:162">
<description>&lt;b&gt;Pin Headers&lt;/b&gt;&lt;p&gt;
Naming:&lt;p&gt;
MA = male&lt;p&gt;
# contacts - # rows&lt;p&gt;
W = angled&lt;p&gt;
&lt;author&gt;Created by librarian@cadsoft.de&lt;/author&gt;</description>
<packages>
<package name="MA05-1" urn="urn:adsk.eagle:footprint:8283/1" library_version="1">
<description>&lt;b&gt;PIN HEADER&lt;/b&gt;</description>
<wire x1="-5.715" y1="1.27" x2="-4.445" y2="1.27" width="0.1524" layer="21"/>
<wire x1="-4.445" y1="1.27" x2="-3.81" y2="0.635" width="0.1524" layer="21"/>
<wire x1="-3.81" y1="-0.635" x2="-4.445" y2="-1.27" width="0.1524" layer="21"/>
<wire x1="-3.81" y1="0.635" x2="-3.175" y2="1.27" width="0.1524" layer="21"/>
<wire x1="-3.175" y1="1.27" x2="-1.905" y2="1.27" width="0.1524" layer="21"/>
<wire x1="-1.905" y1="1.27" x2="-1.27" y2="0.635" width="0.1524" layer="21"/>
<wire x1="-1.27" y1="-0.635" x2="-1.905" y2="-1.27" width="0.1524" layer="21"/>
<wire x1="-1.905" y1="-1.27" x2="-3.175" y2="-1.27" width="0.1524" layer="21"/>
<wire x1="-3.175" y1="-1.27" x2="-3.81" y2="-0.635" width="0.1524" layer="21"/>
<wire x1="-6.35" y1="0.635" x2="-6.35" y2="-0.635" width="0.1524" layer="21"/>
<wire x1="-5.715" y1="1.27" x2="-6.35" y2="0.635" width="0.1524" layer="21"/>
<wire x1="-6.35" y1="-0.635" x2="-5.715" y2="-1.27" width="0.1524" layer="21"/>
<wire x1="-4.445" y1="-1.27" x2="-5.715" y2="-1.27" width="0.1524" layer="21"/>
<wire x1="-1.27" y1="0.635" x2="-0.635" y2="1.27" width="0.1524" layer="21"/>
<wire x1="-0.635" y1="1.27" x2="0.635" y2="1.27" width="0.1524" layer="21"/>
<wire x1="0.635" y1="1.27" x2="1.27" y2="0.635" width="0.1524" layer="21"/>
<wire x1="1.27" y1="-0.635" x2="0.635" y2="-1.27" width="0.1524" layer="21"/>
<wire x1="0.635" y1="-1.27" x2="-0.635" y2="-1.27" width="0.1524" layer="21"/>
<wire x1="-0.635" y1="-1.27" x2="-1.27" y2="-0.635" width="0.1524" layer="21"/>
<wire x1="1.905" y1="1.27" x2="3.175" y2="1.27" width="0.1524" layer="21"/>
<wire x1="3.175" y1="1.27" x2="3.81" y2="0.635" width="0.1524" layer="21"/>
<wire x1="3.81" y1="-0.635" x2="3.175" y2="-1.27" width="0.1524" layer="21"/>
<wire x1="3.81" y1="0.635" x2="4.445" y2="1.27" width="0.1524" layer="21"/>
<wire x1="4.445" y1="1.27" x2="5.715" y2="1.27" width="0.1524" layer="21"/>
<wire x1="5.715" y1="1.27" x2="6.35" y2="0.635" width="0.1524" layer="21"/>
<wire x1="6.35" y1="0.635" x2="6.35" y2="-0.635" width="0.1524" layer="21"/>
<wire x1="6.35" y1="-0.635" x2="5.715" y2="-1.27" width="0.1524" layer="21"/>
<wire x1="5.715" y1="-1.27" x2="4.445" y2="-1.27" width="0.1524" layer="21"/>
<wire x1="4.445" y1="-1.27" x2="3.81" y2="-0.635" width="0.1524" layer="21"/>
<wire x1="1.905" y1="1.27" x2="1.27" y2="0.635" width="0.1524" layer="21"/>
<wire x1="1.27" y1="-0.635" x2="1.905" y2="-1.27" width="0.1524" layer="21"/>
<wire x1="3.175" y1="-1.27" x2="1.905" y2="-1.27" width="0.1524" layer="21"/>
<pad name="1" x="-5.08" y="0" drill="1.016" shape="long" rot="R90"/>
<pad name="2" x="-2.54" y="0" drill="1.016" shape="long" rot="R90"/>
<pad name="3" x="0" y="0" drill="1.016" shape="long" rot="R90"/>
<pad name="4" x="2.54" y="0" drill="1.016" shape="long" rot="R90"/>
<pad name="5" x="5.08" y="0" drill="1.016" shape="long" rot="R90"/>
<text x="-6.35" y="1.651" size="1.27" layer="25" ratio="10">&gt;NAME</text>
<text x="-5.715" y="-2.921" size="1.27" layer="21" ratio="10">1</text>
<text x="4.445" y="1.651" size="1.27" layer="21" ratio="10">5</text>
<text x="-2.54" y="-2.921" size="1.27" layer="27" ratio="10">&gt;VALUE</text>
<rectangle x1="-2.794" y1="-0.254" x2="-2.286" y2="0.254" layer="51"/>
<rectangle x1="-5.334" y1="-0.254" x2="-4.826" y2="0.254" layer="51"/>
<rectangle x1="-0.254" y1="-0.254" x2="0.254" y2="0.254" layer="51"/>
<rectangle x1="4.826" y1="-0.254" x2="5.334" y2="0.254" layer="51"/>
<rectangle x1="2.286" y1="-0.254" x2="2.794" y2="0.254" layer="51"/>
</package>
</packages>
<packages3d>
<package3d name="MA05-1" urn="urn:adsk.eagle:package:8332/1" type="box" library_version="1">
<description>PIN HEADER</description>
<packageinstances>
<packageinstance name="MA05-1"/>
</packageinstances>
</package3d>
</packages3d>
<symbols>
<symbol name="MA05-1" urn="urn:adsk.eagle:symbol:8282/1" library_version="1">
<wire x1="3.81" y1="-7.62" x2="-1.27" y2="-7.62" width="0.4064" layer="94"/>
<wire x1="1.27" y1="0" x2="2.54" y2="0" width="0.6096" layer="94"/>
<wire x1="1.27" y1="-2.54" x2="2.54" y2="-2.54" width="0.6096" layer="94"/>
<wire x1="1.27" y1="-5.08" x2="2.54" y2="-5.08" width="0.6096" layer="94"/>
<wire x1="-1.27" y1="7.62" x2="-1.27" y2="-7.62" width="0.4064" layer="94"/>
<wire x1="3.81" y1="-7.62" x2="3.81" y2="7.62" width="0.4064" layer="94"/>
<wire x1="-1.27" y1="7.62" x2="3.81" y2="7.62" width="0.4064" layer="94"/>
<wire x1="1.27" y1="5.08" x2="2.54" y2="5.08" width="0.6096" layer="94"/>
<wire x1="1.27" y1="2.54" x2="2.54" y2="2.54" width="0.6096" layer="94"/>
<text x="-1.27" y="-10.16" size="1.778" layer="96">&gt;VALUE</text>
<text x="-1.27" y="8.382" size="1.778" layer="95">&gt;NAME</text>
<pin name="1" x="7.62" y="-5.08" visible="pad" length="middle" direction="pas" swaplevel="1" rot="R180"/>
<pin name="2" x="7.62" y="-2.54" visible="pad" length="middle" direction="pas" swaplevel="1" rot="R180"/>
<pin name="3" x="7.62" y="0" visible="pad" length="middle" direction="pas" swaplevel="1" rot="R180"/>
<pin name="4" x="7.62" y="2.54" visible="pad" length="middle" direction="pas" swaplevel="1" rot="R180"/>
<pin name="5" x="7.62" y="5.08" visible="pad" length="middle" direction="pas" swaplevel="1" rot="R180"/>
</symbol>
</symbols>
<devicesets>
<deviceset name="MA05-1" urn="urn:adsk.eagle:component:8379/1" prefix="SV" uservalue="yes" library_version="1">
<description>&lt;b&gt;PIN HEADER&lt;/b&gt;</description>
<gates>
<gate name="G$1" symbol="MA05-1" x="0" y="0"/>
</gates>
<devices>
<device name="" package="MA05-1">
<connects>
<connect gate="G$1" pin="1" pad="1"/>
<connect gate="G$1" pin="2" pad="2"/>
<connect gate="G$1" pin="3" pad="3"/>
<connect gate="G$1" pin="4" pad="4"/>
<connect gate="G$1" pin="5" pad="5"/>
</connects>
<package3dinstances>
<package3dinstance package3d_urn="urn:adsk.eagle:package:8332/1"/>
</package3dinstances>
<technologies>
<technology name="">
<attribute name="MF" value="" constant="no"/>
<attribute name="MPN" value="" constant="no"/>
<attribute name="OC_FARNELL" value="unknown" constant="no"/>
<attribute name="OC_NEWARK" value="unknown" constant="no"/>
</technology>
</technologies>
</device>
</devices>
</deviceset>
</devicesets>
</library>
</libraries>
<attributes>
</attributes>
<variantdefs>
</variantdefs>
<classes>
<class number="0" name="default" width="0" drill="0">
</class>
</classes>
<parts>
<part name="FRAME1" library="frames" library_urn="urn:adsk.eagle:library:229" deviceset="DINA4_L" device=""/>
<part name="CON1" library="microusb" deviceset="MICRO-USB" device="SMD"/>
<part name="SV1" library="con-lstb" library_urn="urn:adsk.eagle:library:162" deviceset="MA05-1" device="" package3d_urn="urn:adsk.eagle:package:8332/1"/>
</parts>
<sheets>
<sheet>
<plain>
</plain>
<instances>
<instance part="FRAME1" gate="G$1" x="0" y="0" smashed="yes"/>
<instance part="FRAME1" gate="G$2" x="162.56" y="0" smashed="yes">
<attribute name="LAST_DATE_TIME" x="175.26" y="1.27" size="2.54" layer="94"/>
<attribute name="SHEET" x="248.92" y="1.27" size="2.54" layer="94"/>
<attribute name="DRAWING_NAME" x="180.34" y="19.05" size="2.54" layer="94"/>
</instance>
<instance part="CON1" gate="G$1" x="71.12" y="71.12" smashed="yes">
<attribute name="NAME" x="66.04" y="83.82" size="1.778" layer="95"/>
<attribute name="VALUE" x="66.04" y="55.88" size="1.778" layer="96"/>
</instance>
<instance part="SV1" gate="G$1" x="38.1" y="71.12" smashed="yes">
<attribute name="VALUE" x="36.83" y="60.96" size="1.778" layer="96"/>
<attribute name="NAME" x="36.83" y="79.502" size="1.778" layer="95"/>
</instance>
</instances>
<busses>
</busses>
<nets>
<net name="N$1" class="0">
<segment>
<pinref part="SV1" gate="G$1" pin="3"/>
<pinref part="CON1" gate="G$1" pin="D+"/>
<wire x1="45.72" y1="71.12" x2="60.96" y2="71.12" width="0.1524" layer="91"/>
</segment>
</net>
<net name="N$2" class="0">
<segment>
<pinref part="SV1" gate="G$1" pin="2"/>
<wire x1="45.72" y1="68.58" x2="58.42" y2="68.58" width="0.1524" layer="91"/>
<wire x1="58.42" y1="68.58" x2="58.42" y2="66.04" width="0.1524" layer="91"/>
<pinref part="CON1" gate="G$1" pin="NC"/>
<wire x1="58.42" y1="66.04" x2="60.96" y2="66.04" width="0.1524" layer="91"/>
</segment>
</net>
<net name="N$3" class="0">
<segment>
<pinref part="CON1" gate="G$1" pin="GND"/>
<wire x1="60.96" y1="60.96" x2="55.88" y2="60.96" width="0.1524" layer="91"/>
<wire x1="55.88" y1="60.96" x2="55.88" y2="66.04" width="0.1524" layer="91"/>
<pinref part="SV1" gate="G$1" pin="1"/>
<wire x1="55.88" y1="66.04" x2="45.72" y2="66.04" width="0.1524" layer="91"/>
<pinref part="CON1" gate="G$1" pin="CASE_GND_1"/>
<wire x1="81.28" y1="78.74" x2="83.82" y2="78.74" width="0.1524" layer="91"/>
<wire x1="83.82" y1="78.74" x2="83.82" y2="55.88" width="0.1524" layer="91"/>
<wire x1="83.82" y1="55.88" x2="55.88" y2="55.88" width="0.1524" layer="91"/>
<wire x1="55.88" y1="55.88" x2="55.88" y2="60.96" width="0.1524" layer="91"/>
<junction x="55.88" y="60.96"/>
</segment>
</net>
<net name="N$4" class="0">
<segment>
<pinref part="SV1" gate="G$1" pin="4"/>
<wire x1="45.72" y1="73.66" x2="58.42" y2="73.66" width="0.1524" layer="91"/>
<wire x1="58.42" y1="73.66" x2="58.42" y2="76.2" width="0.1524" layer="91"/>
<pinref part="CON1" gate="G$1" pin="D-"/>
<wire x1="58.42" y1="76.2" x2="60.96" y2="76.2" width="0.1524" layer="91"/>
</segment>
</net>
<net name="N$5" class="0">
<segment>
<pinref part="SV1" gate="G$1" pin="5"/>
<wire x1="45.72" y1="76.2" x2="55.88" y2="76.2" width="0.1524" layer="91"/>
<wire x1="55.88" y1="76.2" x2="55.88" y2="81.28" width="0.1524" layer="91"/>
<pinref part="CON1" gate="G$1" pin="VCC"/>
<wire x1="55.88" y1="81.28" x2="60.96" y2="81.28" width="0.1524" layer="91"/>
</segment>
</net>
</nets>
</sheet>
</sheets>
</schematic>
</drawing>
<compatibility>
<note version="8.2" severity="warning">
Since Version 8.2, EAGLE supports online libraries. The ids
of those online libraries will not be understood (or retained)
with this version.
</note>
<note version="8.3" severity="warning">
Since Version 8.3, EAGLE supports URNs for individual library
assets (packages, symbols, and devices). The URNs of those assets
will not be understood (or retained) with this version.
</note>
<note version="8.3" severity="warning">
Since Version 8.3, EAGLE supports the association of 3D packages
with devices in libraries, schematics, and board files. Those 3D
packages will not be understood (or retained) with this version.
</note>
</compatibility>
</eagle>
