<!--This work is licensed under a Creative Commons Attribution-ShareAlike 4.0 International License (CC BY-SA) with Design Exception 1.0-->
<eagle version="7.1.0">
<drawing>
<settings>
<setting alwaysvectorfont="no"/>
<setting verticaltext="up"/>
</settings>
<grid distance="0.1" unitdist="inch" unit="inch" style="lines" multiple="1" display="no" altdistance="0.01" altunitdist="inch" altunit="inch"/>
<layers>
<layer number="1" name="Top" color="4" fill="1" visible="yes" active="yes"/>
<layer number="16" name="Bottom" color="1" fill="1" visible="yes" active="yes"/>
<layer number="17" name="Pads" color="2" fill="1" visible="yes" active="yes"/>
<layer number="18" name="Vias" color="2" fill="1" visible="yes" active="yes"/>
<layer number="19" name="Unrouted" color="6" fill="1" visible="yes" active="yes"/>
<layer number="20" name="Dimension" color="15" fill="1" visible="yes" active="yes"/>
<layer number="21" name="tPlace" color="7" fill="1" visible="yes" active="yes"/>
<layer number="22" name="bPlace" color="7" fill="1" visible="yes" active="yes"/>
<layer number="23" name="tOrigins" color="15" fill="1" visible="yes" active="yes"/>
<layer number="24" name="bOrigins" color="15" fill="1" visible="yes" active="yes"/>
<layer number="25" name="tNames" color="7" fill="1" visible="yes" active="yes"/>
<layer number="26" name="bNames" color="7" fill="1" visible="yes" active="yes"/>
<layer number="27" name="tValues" color="7" fill="1" visible="yes" active="yes"/>
<layer number="28" name="bValues" color="7" fill="1" visible="yes" active="yes"/>
<layer number="29" name="tStop" color="7" fill="3" visible="yes" active="yes"/>
<layer number="30" name="bStop" color="7" fill="6" visible="no" active="yes"/>
<layer number="31" name="tCream" color="7" fill="4" visible="yes" active="yes"/>
<layer number="32" name="bCream" color="7" fill="5" visible="no" active="yes"/>
<layer number="33" name="tFinish" color="6" fill="3" visible="no" active="yes"/>
<layer number="34" name="bFinish" color="6" fill="6" visible="no" active="yes"/>
<layer number="35" name="tGlue" color="7" fill="4" visible="no" active="yes"/>
<layer number="36" name="bGlue" color="7" fill="5" visible="no" active="yes"/>
<layer number="37" name="tTest" color="7" fill="1" visible="no" active="yes"/>
<layer number="38" name="bTest" color="7" fill="1" visible="no" active="yes"/>
<layer number="39" name="tKeepout" color="4" fill="11" visible="yes" active="yes"/>
<layer number="40" name="bKeepout" color="1" fill="11" visible="yes" active="yes"/>
<layer number="41" name="tRestrict" color="4" fill="10" visible="yes" active="yes"/>
<layer number="42" name="bRestrict" color="1" fill="10" visible="yes" active="yes"/>
<layer number="43" name="vRestrict" color="2" fill="10" visible="yes" active="yes"/>
<layer number="44" name="Drills" color="7" fill="1" visible="no" active="yes"/>
<layer number="45" name="Holes" color="7" fill="1" visible="no" active="yes"/>
<layer number="46" name="Milling" color="3" fill="1" visible="no" active="yes"/>
<layer number="47" name="Measures" color="7" fill="1" visible="no" active="yes"/>
<layer number="48" name="Document" color="7" fill="1" visible="yes" active="yes"/>
<layer number="49" name="Reference" color="7" fill="1" visible="yes" active="yes"/>
<layer number="51" name="tDocu" color="7" fill="1" visible="yes" active="yes"/>
<layer number="52" name="bDocu" color="7" fill="1" visible="yes" active="yes"/>
<layer number="90" name="Modules" color="5" fill="1" visible="yes" active="yes"/>
<layer number="91" name="Nets" color="2" fill="1" visible="yes" active="yes"/>
<layer number="92" name="Busses" color="1" fill="1" visible="yes" active="yes"/>
<layer number="93" name="Pins" color="2" fill="1" visible="yes" active="yes"/>
<layer number="94" name="Symbols" color="4" fill="1" visible="yes" active="yes"/>
<layer number="95" name="Names" color="7" fill="1" visible="yes" active="yes"/>
<layer number="96" name="Values" color="7" fill="1" visible="yes" active="yes"/>
<layer number="97" name="Info" color="7" fill="1" visible="yes" active="yes"/>
<layer number="98" name="Guide" color="6" fill="1" visible="yes" active="yes"/>
</layers>
<library>
<packages>
<package name="GCT_USB3120-XX-X_REVD">
<circle x="-4.8" y="3.35" radius="0.1" width="0.2" layer="21"/>
<wire x1="-7.325" y1="-1.45" x2="7.325" y2="-1.45" width="0.2" layer="51"/>
<wire x1="-6.7" y1="-2.75" x2="6.7" y2="-2.75" width="0.1" layer="51"/>
<wire x1="-6.7" y1="-2.75" x2="-6.7" y2="2.75" width="0.1" layer="51"/>
<wire x1="-6.7" y1="2.75" x2="6.7" y2="2.75" width="0.1" layer="51"/>
<wire x1="6.7" y1="-2.75" x2="6.7" y2="2.75" width="0.1" layer="51"/>
<wire x1="-7.25" y1="-3" x2="7.25" y2="-3" width="0.05" layer="39"/>
<wire x1="-7.25" y1="-3" x2="-7.25" y2="3.75" width="0.05" layer="39"/>
<wire x1="0" y1="-0.5" x2="0" y2="0.5" width="0.1" layer="51"/>
<wire x1="-0.5" y1="0" x2="0.5" y2="0" width="0.1" layer="51"/>
<wire x1="-7.25" y1="3.75" x2="7.25" y2="3.75" width="0.05" layer="39"/>
<wire x1="7.25" y1="-3" x2="7.25" y2="3.75" width="0.05" layer="39"/>
<wire x1="-6.7" y1="1.2" x2="-6.7" y2="2.75" width="0.2" layer="21"/>
<wire x1="-0.9" y1="2.75" x2="2.2" y2="2.75" width="0.2" layer="21"/>
<wire x1="6.7" y1="1.2" x2="6.7" y2="2.75" width="0.2" layer="21"/>
<wire x1="5.8" y1="2.75" x2="6.7" y2="2.75" width="0.2" layer="21"/>
<wire x1="-6.7" y1="2.75" x2="-4.45" y2="2.75" width="0.2" layer="21"/>
<text x="-6.56148" y="-2.40421" size="0.667844" layer="51" ratio="15" rot="SR0">PCB Edge</text>
<text x="-7.26417" y="-1.30254" size="1.27248" layer="25" ratio="13" rot="SR90">&gt;NAME</text>
<text x="8.61088" y="-1.30165" size="1.27161" layer="27" ratio="13" rot="SR90">&gt;VALUE</text>
<wire x1="-6.5" y1="0.4" x2="-6.275" y2="0.625" width="0" layer="46" curve="-90"/>
<wire x1="-6.275" y1="0.625" x2="-6.05" y2="0.4" width="0" layer="46" curve="-90"/>
<wire x1="-6.05" y1="0.4" x2="-6.05" y2="-0.4" width="0" layer="46"/>
<wire x1="-6.05" y1="-0.4" x2="-6.275" y2="-0.625" width="0" layer="46" curve="-90"/>
<wire x1="-6.275" y1="-0.625" x2="-6.5" y2="-0.4" width="0" layer="46" curve="-90"/>
<wire x1="-6.5" y1="-0.4" x2="-6.5" y2="0.4" width="0" layer="46"/>
<polygon width="0.001" layer="1">
<vertex x="-6.05" y="0"/>
<vertex x="-5.75" y="0"/>
<vertex x="-5.75" y="0.4" curve="90"/>
<vertex x="-6.275" y="0.925" curve="90"/>
<vertex x="-6.8" y="0.4"/>
<vertex x="-6.8" y="0"/>
<vertex x="-6.5" y="0"/>
<vertex x="-6.5" y="0.4" curve="-90"/>
<vertex x="-6.275" y="0.625" curve="-90"/>
<vertex x="-6.05" y="0.4"/>
</polygon>
<polygon width="0.001" layer="1">
<vertex x="-6.5" y="0"/>
<vertex x="-6.8" y="0"/>
<vertex x="-6.8" y="-0.4" curve="90"/>
<vertex x="-6.275" y="-0.925" curve="90"/>
<vertex x="-5.75" y="-0.4"/>
<vertex x="-5.75" y="0"/>
<vertex x="-6.05" y="0"/>
<vertex x="-6.05" y="-0.4" curve="-90"/>
<vertex x="-6.275" y="-0.625" curve="-90"/>
<vertex x="-6.5" y="-0.4"/>
</polygon>
<polygon width="0.001" layer="16">
<vertex x="-6.05" y="0"/>
<vertex x="-5.75" y="0"/>
<vertex x="-5.75" y="0.4" curve="90"/>
<vertex x="-6.275" y="0.925" curve="90"/>
<vertex x="-6.8" y="0.4"/>
<vertex x="-6.8" y="0"/>
<vertex x="-6.5" y="0"/>
<vertex x="-6.5" y="0.4" curve="-90"/>
<vertex x="-6.275" y="0.625" curve="-90"/>
<vertex x="-6.05" y="0.4"/>
</polygon>
<polygon width="0.001" layer="16">
<vertex x="-6.5" y="0"/>
<vertex x="-6.8" y="0"/>
<vertex x="-6.8" y="-0.4" curve="90"/>
<vertex x="-6.275" y="-0.925" curve="90"/>
<vertex x="-5.75" y="-0.4"/>
<vertex x="-5.75" y="0"/>
<vertex x="-6.05" y="0"/>
<vertex x="-6.05" y="-0.4" curve="-90"/>
<vertex x="-6.275" y="-0.625" curve="-90"/>
<vertex x="-6.5" y="-0.4"/>
</polygon>
<polygon width="0.001" layer="31">
<vertex x="-6.05" y="0"/>
<vertex x="-5.75" y="0"/>
<vertex x="-5.75" y="0.4" curve="90"/>
<vertex x="-6.275" y="0.925" curve="90"/>
<vertex x="-6.8" y="0.4"/>
<vertex x="-6.8" y="0"/>
<vertex x="-6.5" y="0"/>
<vertex x="-6.5" y="0.4" curve="-90"/>
<vertex x="-6.275" y="0.625" curve="-90"/>
<vertex x="-6.05" y="0.4"/>
</polygon>
<polygon width="0.001" layer="31">
<vertex x="-6.5" y="0"/>
<vertex x="-6.8" y="0"/>
<vertex x="-6.8" y="-0.4" curve="90"/>
<vertex x="-6.275" y="-0.925" curve="90"/>
<vertex x="-5.75" y="-0.4"/>
<vertex x="-5.75" y="0"/>
<vertex x="-6.05" y="0"/>
<vertex x="-6.05" y="-0.4" curve="-90"/>
<vertex x="-6.275" y="-0.625" curve="-90"/>
<vertex x="-6.5" y="-0.4"/>
</polygon>
<polygon width="0.001" layer="32">
<vertex x="-6.05" y="0"/>
<vertex x="-5.75" y="0"/>
<vertex x="-5.75" y="0.4" curve="90"/>
<vertex x="-6.275" y="0.925" curve="90"/>
<vertex x="-6.8" y="0.4"/>
<vertex x="-6.8" y="0"/>
<vertex x="-6.5" y="0"/>
<vertex x="-6.5" y="0.4" curve="-90"/>
<vertex x="-6.275" y="0.625" curve="-90"/>
<vertex x="-6.05" y="0.4"/>
</polygon>
<polygon width="0.001" layer="32">
<vertex x="-6.5" y="0"/>
<vertex x="-6.8" y="0"/>
<vertex x="-6.8" y="-0.4" curve="90"/>
<vertex x="-6.275" y="-0.925" curve="90"/>
<vertex x="-5.75" y="-0.4"/>
<vertex x="-5.75" y="0"/>
<vertex x="-6.05" y="0"/>
<vertex x="-6.05" y="-0.4" curve="-90"/>
<vertex x="-6.275" y="-0.625" curve="-90"/>
<vertex x="-6.5" y="-0.4"/>
</polygon>
<rectangle x1="-6.91275" y1="-1.02689" x2="-5.65" y2="1.025" layer="29"/>
<rectangle x1="-6.90909" y1="-1.02635" x2="-5.65" y2="1.025" layer="30"/>
<wire x1="6.05" y1="0.4" x2="6.275" y2="0.625" width="0" layer="46" curve="-90"/>
<wire x1="6.275" y1="0.625" x2="6.5" y2="0.4" width="0" layer="46" curve="-90"/>
<wire x1="6.5" y1="0.4" x2="6.5" y2="-0.4" width="0" layer="46"/>
<wire x1="6.5" y1="-0.4" x2="6.275" y2="-0.625" width="0" layer="46" curve="-90"/>
<wire x1="6.275" y1="-0.625" x2="6.05" y2="-0.4" width="0" layer="46" curve="-90"/>
<wire x1="6.05" y1="-0.4" x2="6.05" y2="0.4" width="0" layer="46"/>
<polygon width="0.001" layer="1">
<vertex x="6.5" y="0"/>
<vertex x="6.8" y="0"/>
<vertex x="6.8" y="0.4" curve="90"/>
<vertex x="6.275" y="0.925" curve="90"/>
<vertex x="5.75" y="0.4"/>
<vertex x="5.75" y="0"/>
<vertex x="6.05" y="0"/>
<vertex x="6.05" y="0.4" curve="-90"/>
<vertex x="6.275" y="0.625" curve="-90"/>
<vertex x="6.5" y="0.4"/>
</polygon>
<polygon width="0.001" layer="1">
<vertex x="6.05" y="0"/>
<vertex x="5.75" y="0"/>
<vertex x="5.75" y="-0.4" curve="90"/>
<vertex x="6.275" y="-0.925" curve="90"/>
<vertex x="6.8" y="-0.4"/>
<vertex x="6.8" y="0"/>
<vertex x="6.5" y="0"/>
<vertex x="6.5" y="-0.4" curve="-90"/>
<vertex x="6.275" y="-0.625" curve="-90"/>
<vertex x="6.05" y="-0.4"/>
</polygon>
<polygon width="0.001" layer="16">
<vertex x="6.5" y="0"/>
<vertex x="6.8" y="0"/>
<vertex x="6.8" y="0.4" curve="90"/>
<vertex x="6.275" y="0.925" curve="90"/>
<vertex x="5.75" y="0.4"/>
<vertex x="5.75" y="0"/>
<vertex x="6.05" y="0"/>
<vertex x="6.05" y="0.4" curve="-90"/>
<vertex x="6.275" y="0.625" curve="-90"/>
<vertex x="6.5" y="0.4"/>
</polygon>
<polygon width="0.001" layer="16">
<vertex x="6.05" y="0"/>
<vertex x="5.75" y="0"/>
<vertex x="5.75" y="-0.4" curve="90"/>
<vertex x="6.275" y="-0.925" curve="90"/>
<vertex x="6.8" y="-0.4"/>
<vertex x="6.8" y="0"/>
<vertex x="6.5" y="0"/>
<vertex x="6.5" y="-0.4" curve="-90"/>
<vertex x="6.275" y="-0.625" curve="-90"/>
<vertex x="6.05" y="-0.4"/>
</polygon>
<polygon width="0.001" layer="31">
<vertex x="6.5" y="0"/>
<vertex x="6.8" y="0"/>
<vertex x="6.8" y="0.4" curve="90"/>
<vertex x="6.275" y="0.925" curve="90"/>
<vertex x="5.75" y="0.4"/>
<vertex x="5.75" y="0"/>
<vertex x="6.05" y="0"/>
<vertex x="6.05" y="0.4" curve="-90"/>
<vertex x="6.275" y="0.625" curve="-90"/>
<vertex x="6.5" y="0.4"/>
</polygon>
<polygon width="0.001" layer="31">
<vertex x="6.05" y="0"/>
<vertex x="5.75" y="0"/>
<vertex x="5.75" y="-0.4" curve="90"/>
<vertex x="6.275" y="-0.925" curve="90"/>
<vertex x="6.8" y="-0.4"/>
<vertex x="6.8" y="0"/>
<vertex x="6.5" y="0"/>
<vertex x="6.5" y="-0.4" curve="-90"/>
<vertex x="6.275" y="-0.625" curve="-90"/>
<vertex x="6.05" y="-0.4"/>
</polygon>
<polygon width="0.001" layer="32">
<vertex x="6.5" y="0"/>
<vertex x="6.8" y="0"/>
<vertex x="6.8" y="0.4" curve="90"/>
<vertex x="6.275" y="0.925" curve="90"/>
<vertex x="5.75" y="0.4"/>
<vertex x="5.75" y="0"/>
<vertex x="6.05" y="0"/>
<vertex x="6.05" y="0.4" curve="-90"/>
<vertex x="6.275" y="0.625" curve="-90"/>
<vertex x="6.5" y="0.4"/>
</polygon>
<polygon width="0.001" layer="32">
<vertex x="6.05" y="0"/>
<vertex x="5.75" y="0"/>
<vertex x="5.75" y="-0.4" curve="90"/>
<vertex x="6.275" y="-0.925" curve="90"/>
<vertex x="6.8" y="-0.4"/>
<vertex x="6.8" y="0"/>
<vertex x="6.5" y="0"/>
<vertex x="6.5" y="-0.4" curve="-90"/>
<vertex x="6.275" y="-0.625" curve="-90"/>
<vertex x="6.05" y="-0.4"/>
</polygon>
<rectangle x1="5.65293" y1="-1.02553" x2="6.9" y2="1.025" layer="29"/>
<rectangle x1="5.65903" y1="-1.02664" x2="6.9" y2="1.025" layer="30"/>
<smd name="1" x="-3.975" y="2.675" dx="0.4" dy="1.35" layer="1"/>
<smd name="2" x="-3.325" y="2.675" dx="0.4" dy="1.35" layer="1"/>
<smd name="3" x="-2.675" y="2.675" dx="0.4" dy="1.35" layer="1"/>
<smd name="4" x="-2.025" y="2.675" dx="0.4" dy="1.35" layer="1"/>
<smd name="5" x="-1.375" y="2.675" dx="0.4" dy="1.35" layer="1"/>
<smd name="6" x="2.725" y="2.675" dx="0.4" dy="1.35" layer="1"/>
<smd name="7" x="3.375" y="2.675" dx="0.4" dy="1.35" layer="1"/>
<smd name="8" x="4.025" y="2.675" dx="0.4" dy="1.35" layer="1"/>
<smd name="9" x="4.675" y="2.675" dx="0.4" dy="1.35" layer="1"/>
<smd name="10" x="5.325" y="2.675" dx="0.4" dy="1.35" layer="1"/>
<smd name="13" x="3.825" y="0" dx="1.8" dy="1.9" layer="1"/>
<smd name="14" x="1.075" y="0" dx="2.3" dy="1.9" layer="1"/>
<smd name="15" x="-1.587" y="0" dx="1.925" dy="1.9" layer="1"/>
<smd name="16" x="-3.762" y="0" dx="1.925" dy="1.9" layer="1"/>
<hole x="-6.275" y="0" drill="0.45"/>
<smd name="11" x="-6.275" y="0.775" dx="0.1" dy="0.1" layer="1" stop="no" cream="no"/>
<hole x="6.275" y="0" drill="0.45"/>
<smd name="12" x="6.275" y="0.775" dx="0.1" dy="0.1" layer="1" stop="no" cream="no"/>
</package>
</packages>
<symbols>
<symbol name="USB3120-XX-X_REVD">
<wire x1="-7.62" y1="15.24" x2="7.62" y2="15.24" width="0.254" layer="94"/>
<wire x1="7.62" y1="15.24" x2="7.62" y2="-17.78" width="0.254" layer="94"/>
<wire x1="7.62" y1="-17.78" x2="-7.62" y2="-17.78" width="0.254" layer="94"/>
<wire x1="-7.62" y1="-17.78" x2="-7.62" y2="15.24" width="0.254" layer="94"/>
<text x="-7.6227" y="15.2454" size="1.77863" layer="95">&gt;NAME</text>
<text x="-7.62121" y="-20.3232" size="1.77828" layer="96">&gt;VALUE</text>
<pin name="VBUS" x="-12.7" y="12.7" length="middle" direction="pwr"/>
<pin name="D-" x="-12.7" y="10.16" length="middle"/>
<pin name="D+" x="-12.7" y="7.62" length="middle"/>
<pin name="GND" x="-12.7" y="2.54" length="middle" direction="pwr"/>
<pin name="SHIELD" x="-12.7" y="-15.24" length="middle" direction="pas"/>
<pin name="MICA_SSRX-" x="-12.7" y="-2.54" length="middle" direction="in"/>
<pin name="MICA_SSRX+" x="-12.7" y="-5.08" length="middle" direction="in"/>
<pin name="GND_DRAIN" x="-12.7" y="-7.62" length="middle" direction="pwr"/>
<pin name="MICA_SSTX-" x="-12.7" y="-10.16" length="middle" direction="out"/>
<pin name="MICA_SSTX+" x="-12.7" y="-12.7" length="middle" direction="out"/>
<pin name="ID" x="-12.7" y="5.08" length="middle" direction="pas"/>
</symbol>
</symbols>
<devicesets>
<deviceset name="USB3120-XX-X_REVD" prefix="J">
<description>USB 3.0 Receptacle, Type AB, SMT, Horizontal, 10 Pin, Bottom Mount, with Outer Shell Stakes</description>
<gates>
<gate name="G$1" symbol="USB3120-XX-X_REVD" x="0" y="0"/>
</gates>
<devices>
<device name="" package="GCT_USB3120-XX-X_REVD">
<connects>
<connect gate="G$1" pin="D+" pad="3"/>
<connect gate="G$1" pin="D-" pad="2"/>
<connect gate="G$1" pin="GND" pad="5"/>
<connect gate="G$1" pin="GND_DRAIN" pad="8"/>
<connect gate="G$1" pin="ID" pad="4"/>
<connect gate="G$1" pin="MICA_SSRX+" pad="7"/>
<connect gate="G$1" pin="MICA_SSRX-" pad="6"/>
<connect gate="G$1" pin="MICA_SSTX+" pad="10"/>
<connect gate="G$1" pin="MICA_SSTX-" pad="9"/>
<connect gate="G$1" pin="SHIELD" pad="11 12 13 14 15 16"/>
<connect gate="G$1" pin="VBUS" pad="1"/>
</connects>
<technologies>
<technology name="">
<attribute name="Description" value="
USB Series Bottom Mount SMT Right Angle 30 µ  USB 3.0 Micro AB Type Socket
"/>
<attribute name="MP" value="USB3120-30-A"/>
<attribute name="Price" value="None"/>
<attribute name="Availability" value="Unavailable"/>
<attribute name="MF" value="Global Connector Technology"/>
<attribute name="Package" value="None"/>
</technology>
</technologies>
</device>
</devices>
</deviceset>
</devicesets>
</library>
</drawing>
</eagle>
