EN address_counter_tb_vhd NULL E:/schule/BHEL4/LAB/ekg/address_counter/address_counter_tb.vhd sub00/vhpl02 1582714480
EN address_counter NULL E:/schule/BHEL4/LAB/ekg/address_counter/address_counter.vhd sub00/vhpl00 1582714478
AR address_counter_tb_vhd behavior E:/schule/BHEL4/LAB/ekg/address_counter/address_counter_tb.vhd sub00/vhpl03 1582714481
AR address_counter behavioral E:/schule/BHEL4/LAB/ekg/address_counter/address_counter.vhd sub00/vhpl01 1582714479
