V3 3
FL E:/schule/BHEL4/LAB/ekg/clock_divider/clock_divider.vhd 2020/02/26.11:29:23 J.40
EN work/clock_divider 1582712970 \
      FL E:/schule/BHEL4/LAB/ekg/clock_divider/clock_divider.vhd \
      PB ieee/std_logic_1164 1192821031 PB ieee/std_logic_arith 1192821032 \
      PB ieee/STD_LOGIC_UNSIGNED 1192821033
AR work/clock_divider/rtl 1582712971 \
      FL E:/schule/BHEL4/LAB/ekg/clock_divider/clock_divider.vhd \
      EN work/clock_divider 1582712970
