G04 #@! TF.GenerationSoftware,KiCad,Pcbnew,(5.0.2)-1*
G04 #@! TF.CreationDate,2019-02-27T14:11:10+01:00*
G04 #@! TF.ProjectId,2019_02_27_GL850G_Breakout,32303139-5f30-4325-9f32-375f474c3835,rev?*
G04 #@! TF.SameCoordinates,Original*
G04 #@! TF.FileFunction,Copper,L1,Top*
G04 #@! TF.FilePolarity,Positive*
%FSLAX46Y46*%
G04 Gerber Fmt 4.6, Leading zero omitted, Abs format (unit mm)*
G04 Created by KiCad (PCBNEW (5.0.2)-1) date 27.02.2019 14:11:10*
%MOMM*%
%LPD*%
G01*
G04 APERTURE LIST*
G04 #@! TA.AperFunction,ComponentPad*
%ADD10O,1.700000X1.700000*%
G04 #@! TD*
G04 #@! TA.AperFunction,ComponentPad*
%ADD11R,1.700000X1.700000*%
G04 #@! TD*
G04 #@! TA.AperFunction,SMDPad,CuDef*
%ADD12R,1.750000X0.450000*%
G04 #@! TD*
G04 #@! TA.AperFunction,Conductor*
%ADD13C,0.400000*%
G04 #@! TD*
G04 APERTURE END LIST*
D10*
G04 #@! TO.P,J2,14*
G04 #@! TO.N,Net-(J2-Pad14)*
X168910000Y-63500000D03*
G04 #@! TO.P,J2,13*
G04 #@! TO.N,Net-(J2-Pad13)*
X168910000Y-60960000D03*
G04 #@! TO.P,J2,12*
G04 #@! TO.N,Net-(J2-Pad12)*
X168910000Y-58420000D03*
G04 #@! TO.P,J2,11*
G04 #@! TO.N,Net-(J2-Pad11)*
X168910000Y-55880000D03*
G04 #@! TO.P,J2,10*
G04 #@! TO.N,Net-(J2-Pad10)*
X168910000Y-53340000D03*
G04 #@! TO.P,J2,9*
G04 #@! TO.N,Net-(J2-Pad9)*
X168910000Y-50800000D03*
G04 #@! TO.P,J2,8*
G04 #@! TO.N,Net-(J2-Pad8)*
X168910000Y-48260000D03*
G04 #@! TO.P,J2,7*
G04 #@! TO.N,Net-(J2-Pad7)*
X168910000Y-45720000D03*
G04 #@! TO.P,J2,6*
G04 #@! TO.N,Net-(J2-Pad6)*
X168910000Y-43180000D03*
G04 #@! TO.P,J2,5*
G04 #@! TO.N,Net-(J2-Pad5)*
X168910000Y-40640000D03*
G04 #@! TO.P,J2,4*
G04 #@! TO.N,Net-(J2-Pad4)*
X168910000Y-38100000D03*
G04 #@! TO.P,J2,3*
G04 #@! TO.N,Net-(J2-Pad3)*
X168910000Y-35560000D03*
G04 #@! TO.P,J2,2*
G04 #@! TO.N,Net-(J2-Pad2)*
X168910000Y-33020000D03*
D11*
G04 #@! TO.P,J2,1*
G04 #@! TO.N,Net-(J2-Pad1)*
X168910000Y-30480000D03*
G04 #@! TD*
G04 #@! TO.P,J1,1*
G04 #@! TO.N,Net-(J1-Pad1)*
X140970000Y-63500000D03*
D10*
G04 #@! TO.P,J1,2*
G04 #@! TO.N,Net-(J1-Pad2)*
X140970000Y-60960000D03*
G04 #@! TO.P,J1,3*
G04 #@! TO.N,Net-(J1-Pad3)*
X140970000Y-58420000D03*
G04 #@! TO.P,J1,4*
G04 #@! TO.N,Net-(J1-Pad4)*
X140970000Y-55880000D03*
G04 #@! TO.P,J1,5*
G04 #@! TO.N,Net-(J1-Pad5)*
X140970000Y-53340000D03*
G04 #@! TO.P,J1,6*
G04 #@! TO.N,Net-(J1-Pad6)*
X140970000Y-50800000D03*
G04 #@! TO.P,J1,7*
G04 #@! TO.N,Net-(J1-Pad7)*
X140970000Y-48260000D03*
G04 #@! TO.P,J1,8*
G04 #@! TO.N,Net-(J1-Pad8)*
X140970000Y-45720000D03*
G04 #@! TO.P,J1,9*
G04 #@! TO.N,Net-(J1-Pad9)*
X140970000Y-43180000D03*
G04 #@! TO.P,J1,10*
G04 #@! TO.N,Net-(J1-Pad10)*
X140970000Y-40640000D03*
G04 #@! TO.P,J1,11*
G04 #@! TO.N,Net-(J1-Pad11)*
X140970000Y-38100000D03*
G04 #@! TO.P,J1,12*
G04 #@! TO.N,Net-(J1-Pad12)*
X140970000Y-35560000D03*
G04 #@! TO.P,J1,13*
G04 #@! TO.N,Net-(J1-Pad13)*
X140970000Y-33020000D03*
G04 #@! TO.P,J1,14*
G04 #@! TO.N,Net-(J1-Pad14)*
X140970000Y-30480000D03*
G04 #@! TD*
D12*
G04 #@! TO.P,U1,1*
G04 #@! TO.N,Net-(J1-Pad14)*
X151340000Y-41495000D03*
G04 #@! TO.P,U1,2*
G04 #@! TO.N,Net-(J1-Pad13)*
X151340000Y-42145000D03*
G04 #@! TO.P,U1,3*
G04 #@! TO.N,Net-(J1-Pad12)*
X151340000Y-42795000D03*
G04 #@! TO.P,U1,4*
G04 #@! TO.N,Net-(J1-Pad11)*
X151340000Y-43445000D03*
G04 #@! TO.P,U1,5*
G04 #@! TO.N,Net-(J1-Pad10)*
X151340000Y-44095000D03*
G04 #@! TO.P,U1,6*
G04 #@! TO.N,Net-(J1-Pad9)*
X151340000Y-44745000D03*
G04 #@! TO.P,U1,7*
G04 #@! TO.N,Net-(J1-Pad8)*
X151340000Y-45395000D03*
G04 #@! TO.P,U1,8*
G04 #@! TO.N,Net-(J1-Pad7)*
X151340000Y-46045000D03*
G04 #@! TO.P,U1,9*
G04 #@! TO.N,Net-(J1-Pad6)*
X151340000Y-46695000D03*
G04 #@! TO.P,U1,10*
G04 #@! TO.N,Net-(J1-Pad5)*
X151340000Y-47345000D03*
G04 #@! TO.P,U1,11*
G04 #@! TO.N,Net-(J1-Pad4)*
X151340000Y-47995000D03*
G04 #@! TO.P,U1,12*
G04 #@! TO.N,Net-(J1-Pad3)*
X151340000Y-48645000D03*
G04 #@! TO.P,U1,13*
G04 #@! TO.N,Net-(J1-Pad2)*
X151340000Y-49295000D03*
G04 #@! TO.P,U1,14*
G04 #@! TO.N,Net-(J1-Pad1)*
X151340000Y-49945000D03*
G04 #@! TO.P,U1,15*
G04 #@! TO.N,Net-(J2-Pad14)*
X158540000Y-49945000D03*
G04 #@! TO.P,U1,16*
G04 #@! TO.N,Net-(J2-Pad13)*
X158540000Y-49295000D03*
G04 #@! TO.P,U1,17*
G04 #@! TO.N,Net-(J2-Pad12)*
X158540000Y-48645000D03*
G04 #@! TO.P,U1,18*
G04 #@! TO.N,Net-(J2-Pad11)*
X158540000Y-47995000D03*
G04 #@! TO.P,U1,19*
G04 #@! TO.N,Net-(J2-Pad10)*
X158540000Y-47345000D03*
G04 #@! TO.P,U1,20*
G04 #@! TO.N,Net-(J2-Pad9)*
X158540000Y-46695000D03*
G04 #@! TO.P,U1,21*
G04 #@! TO.N,Net-(J2-Pad8)*
X158540000Y-46045000D03*
G04 #@! TO.P,U1,22*
G04 #@! TO.N,Net-(J2-Pad7)*
X158540000Y-45395000D03*
G04 #@! TO.P,U1,23*
G04 #@! TO.N,Net-(J2-Pad6)*
X158540000Y-44745000D03*
G04 #@! TO.P,U1,24*
G04 #@! TO.N,Net-(J2-Pad5)*
X158540000Y-44095000D03*
G04 #@! TO.P,U1,25*
G04 #@! TO.N,Net-(J2-Pad4)*
X158540000Y-43445000D03*
G04 #@! TO.P,U1,26*
G04 #@! TO.N,Net-(J2-Pad3)*
X158540000Y-42795000D03*
G04 #@! TO.P,U1,27*
G04 #@! TO.N,Net-(J2-Pad2)*
X158540000Y-42145000D03*
G04 #@! TO.P,U1,28*
G04 #@! TO.N,Net-(J2-Pad1)*
X158540000Y-41495000D03*
G04 #@! TD*
D13*
G04 #@! TO.N,Net-(J1-Pad14)*
X151340000Y-40850000D02*
X151130000Y-40640000D01*
X151340000Y-41495000D02*
X151340000Y-40850000D01*
X151130000Y-40640000D02*
X151130000Y-32004000D01*
X149606000Y-30480000D02*
X140970000Y-30480000D01*
X151130000Y-32004000D02*
X149606000Y-30480000D01*
G04 #@! TO.N,Net-(J1-Pad13)*
X150064999Y-42144999D02*
X149860000Y-41940000D01*
X151340000Y-42145000D02*
X150064999Y-42144999D01*
X149860000Y-41940000D02*
X149860000Y-33528000D01*
X149352000Y-33020000D02*
X140970000Y-33020000D01*
X149860000Y-33528000D02*
X149352000Y-33020000D01*
G04 #@! TO.N,Net-(J1-Pad12)*
X149866458Y-42795000D02*
X149098000Y-42026542D01*
X151340000Y-42795000D02*
X149866458Y-42795000D01*
X149098000Y-42026542D02*
X149098000Y-36068000D01*
X148590000Y-35560000D02*
X140970000Y-35560000D01*
X149098000Y-36068000D02*
X148590000Y-35560000D01*
G04 #@! TO.N,Net-(J1-Pad11)*
X149667916Y-43445000D02*
X148336000Y-42113084D01*
X151340000Y-43445000D02*
X149667916Y-43445000D01*
X148336000Y-42113084D02*
X148336000Y-38608000D01*
X147828000Y-38100000D02*
X140970000Y-38100000D01*
X148336000Y-38608000D02*
X147828000Y-38100000D01*
G04 #@! TO.N,Net-(J1-Pad10)*
X149469374Y-44095000D02*
X147574000Y-42199626D01*
X151340000Y-44095000D02*
X149469374Y-44095000D01*
X147574000Y-42199626D02*
X147574000Y-40894000D01*
X147320000Y-40640000D02*
X140970000Y-40640000D01*
X147574000Y-40894000D02*
X147320000Y-40640000D01*
G04 #@! TO.N,Net-(J1-Pad9)*
X151340000Y-44745000D02*
X149139000Y-44745000D01*
X147574000Y-43180000D02*
X140970000Y-43180000D01*
X149139000Y-44745000D02*
X147574000Y-43180000D01*
G04 #@! TO.N,Net-(J1-Pad8)*
X141295000Y-45395000D02*
X140970000Y-45720000D01*
X151340000Y-45395000D02*
X141295000Y-45395000D01*
G04 #@! TO.N,Net-(J1-Pad7)*
X143185000Y-46045000D02*
X140970000Y-48260000D01*
X151340000Y-46045000D02*
X143185000Y-46045000D01*
G04 #@! TO.N,Net-(J1-Pad6)*
X145075000Y-46695000D02*
X140970000Y-50800000D01*
X151340000Y-46695000D02*
X145075000Y-46695000D01*
G04 #@! TO.N,Net-(J1-Pad5)*
X146965000Y-47345000D02*
X140970000Y-53340000D01*
X151340000Y-47345000D02*
X146965000Y-47345000D01*
G04 #@! TO.N,Net-(J1-Pad4)*
X148855000Y-47995000D02*
X140970000Y-55880000D01*
X151340000Y-47995000D02*
X148855000Y-47995000D01*
G04 #@! TO.N,Net-(J1-Pad3)*
X150065000Y-48645000D02*
X144780000Y-53930000D01*
X151340000Y-48645000D02*
X150065000Y-48645000D01*
X144780000Y-54610000D02*
X140970000Y-58420000D01*
X144780000Y-53930000D02*
X144780000Y-54610000D01*
G04 #@! TO.N,Net-(J1-Pad2)*
X141819999Y-60110001D02*
X140970000Y-60960000D01*
X145380010Y-56549990D02*
X141819999Y-60110001D01*
X145380010Y-54178532D02*
X145380010Y-56549990D01*
X150263542Y-49295000D02*
X145380010Y-54178532D01*
X151340000Y-49295000D02*
X150263542Y-49295000D01*
G04 #@! TO.N,Net-(J1-Pad1)*
X142220000Y-63500000D02*
X140970000Y-63500000D01*
X151340000Y-54380000D02*
X142220000Y-63500000D01*
X151340000Y-49945000D02*
X151340000Y-54380000D01*
G04 #@! TO.N,Net-(J2-Pad14)*
X158540000Y-50570000D02*
X158496000Y-50614000D01*
X158540000Y-49945000D02*
X158540000Y-50570000D01*
X158496000Y-50614000D02*
X158496000Y-62992000D01*
X159004000Y-63500000D02*
X168910000Y-63500000D01*
X158496000Y-62992000D02*
X159004000Y-63500000D01*
G04 #@! TO.N,Net-(J2-Pad13)*
X159815000Y-49295000D02*
X160020000Y-49500000D01*
X158540000Y-49295000D02*
X159815000Y-49295000D01*
X160020000Y-49500000D02*
X160020000Y-60452000D01*
X160528000Y-60960000D02*
X168910000Y-60960000D01*
X160020000Y-60452000D02*
X160528000Y-60960000D01*
G04 #@! TO.N,Net-(J2-Pad12)*
X160013542Y-48645000D02*
X160620010Y-49251468D01*
X158540000Y-48645000D02*
X160013542Y-48645000D01*
X160620010Y-49251468D02*
X160620010Y-58004010D01*
X161036000Y-58420000D02*
X168910000Y-58420000D01*
X160620010Y-58004010D02*
X161036000Y-58420000D01*
G04 #@! TO.N,Net-(J2-Pad11)*
X160212084Y-47995000D02*
X161290000Y-49072916D01*
X158540000Y-47995000D02*
X160212084Y-47995000D01*
X161290000Y-49072916D02*
X161290000Y-55626000D01*
X161544000Y-55880000D02*
X168910000Y-55880000D01*
X161290000Y-55626000D02*
X161544000Y-55880000D01*
G04 #@! TO.N,Net-(J2-Pad10)*
X159864990Y-47394990D02*
X160678990Y-47394990D01*
X158540000Y-47345000D02*
X159815000Y-47345000D01*
X159815000Y-47345000D02*
X159864990Y-47394990D01*
X160678990Y-47394990D02*
X162052000Y-48768000D01*
X162052000Y-48768000D02*
X162052000Y-53086000D01*
X162306000Y-53340000D02*
X168910000Y-53340000D01*
X162052000Y-53086000D02*
X162306000Y-53340000D01*
G04 #@! TO.N,Net-(J2-Pad9)*
X160827542Y-46695000D02*
X160868542Y-46736000D01*
X158540000Y-46695000D02*
X160827542Y-46695000D01*
X160868542Y-46736000D02*
X161036000Y-46736000D01*
X162652010Y-48352010D02*
X162652010Y-50384010D01*
X161036000Y-46736000D02*
X162652010Y-48352010D01*
X163068000Y-50800000D02*
X168910000Y-50800000D01*
X162652010Y-50384010D02*
X163068000Y-50800000D01*
G04 #@! TO.N,Net-(J2-Pad8)*
X163408542Y-48260000D02*
X168910000Y-48260000D01*
X158540000Y-46045000D02*
X161193542Y-46045000D01*
X161193542Y-46045000D02*
X163408542Y-48260000D01*
G04 #@! TO.N,Net-(J2-Pad7)*
X168585000Y-45395000D02*
X168910000Y-45720000D01*
X158540000Y-45395000D02*
X168585000Y-45395000D01*
G04 #@! TO.N,Net-(J2-Pad6)*
X167345000Y-44745000D02*
X168910000Y-43180000D01*
X158540000Y-44745000D02*
X167345000Y-44745000D01*
G04 #@! TO.N,Net-(J2-Pad5)*
X165455000Y-44095000D02*
X168910000Y-40640000D01*
X158540000Y-44095000D02*
X165455000Y-44095000D01*
G04 #@! TO.N,Net-(J2-Pad4)*
X159710002Y-43445000D02*
X159721002Y-43434000D01*
X158540000Y-43445000D02*
X159710002Y-43445000D01*
X163576000Y-43434000D02*
X168910000Y-38100000D01*
X159721002Y-43434000D02*
X163576000Y-43434000D01*
G04 #@! TO.N,Net-(J2-Pad3)*
X159413999Y-42770001D02*
X161699999Y-42770001D01*
X158540000Y-42795000D02*
X159389000Y-42795000D01*
X159389000Y-42795000D02*
X159413999Y-42770001D01*
X161699999Y-42770001D02*
X168910000Y-35560000D01*
G04 #@! TO.N,Net-(J2-Pad2)*
X168910000Y-33050000D02*
X168910000Y-33020000D01*
X159815000Y-42145000D02*
X168910000Y-33050000D01*
X158540000Y-42145000D02*
X159815000Y-42145000D01*
G04 #@! TO.N,Net-(J2-Pad1)*
X167660000Y-30480000D02*
X168910000Y-30480000D01*
X158540000Y-39600000D02*
X167660000Y-30480000D01*
X158540000Y-41495000D02*
X158540000Y-39600000D01*
G04 #@! TD*
M02*
