V3 19
FL E:/schule/BHEL4/LAB/ekg/ekg_audio/../address_counter/address_counter.vhd 2020/02/26.11:52:35 J.40
EN work/address_counter 1583311587 \
      FL E:/schule/BHEL4/LAB/ekg/ekg_audio/../address_counter/address_counter.vhd \
      PB ieee/std_logic_1164 1194562354 PB ieee/std_logic_arith 1194562356 \
      PB ieee/STD_LOGIC_UNSIGNED 1194562362
AR work/address_counter/Behavioral 1583311588 \
      FL E:/schule/BHEL4/LAB/ekg/ekg_audio/../address_counter/address_counter.vhd \
      EN work/address_counter 1583311587
FL E:/schule/BHEL4/LAB/ekg/ekg_audio/../clock_divider/clock_divider.vhd 2020/02/26.11:32:57 J.40
EN work/clock_divider 1583311585 \
      FL E:/schule/BHEL4/LAB/ekg/ekg_audio/../clock_divider/clock_divider.vhd \
      PB ieee/std_logic_1164 1194562354 PB ieee/std_logic_arith 1194562356 \
      PB ieee/STD_LOGIC_UNSIGNED 1194562362
AR work/clock_divider/rtl 1583311586 \
      FL E:/schule/BHEL4/LAB/ekg/ekg_audio/../clock_divider/clock_divider.vhd \
      EN work/clock_divider 1583311585
FL E:/schule/BHEL4/LAB/ekg/ekg_audio/../rom/rom.vhd 2020/02/26.11:04:02 J.40
EN work/rom 1583311589 FL E:/schule/BHEL4/LAB/ekg/ekg_audio/../rom/rom.vhd \
      PB ieee/std_logic_1164 1194562354 PB ieee/std_logic_arith 1194562356 \
      PB ieee/STD_LOGIC_UNSIGNED 1194562362
AR work/rom/rtl 1583311590 \
      FL E:/schule/BHEL4/LAB/ekg/ekg_audio/../rom/rom.vhd EN work/rom 1583311589
FL E:/schule/BHEL4/LAB/ekg/ekg_audio/ekg_audio.vhd 2020/03/04.09:44:53 J.40
EN work/ekg_audio 1583311591 FL E:/schule/BHEL4/LAB/ekg/ekg_audio/ekg_audio.vhd \
      PB ieee/std_logic_1164 1194562354 PB ieee/std_logic_arith 1194562356 \
      PB ieee/STD_LOGIC_UNSIGNED 1194562362
AR work/ekg_audio/rtl 1583311592 \
      FL E:/schule/BHEL4/LAB/ekg/ekg_audio/ekg_audio.vhd EN work/ekg_audio 1583311591 \
      CP clock_divider CP address_counter CP rom
FL E:/schule/BHEL4/LAB/ekg/ekg_audio/ekg_audio_tb.vhd 2020/03/04.09:46:17 J.40
EN work/ekg_audio_tb_vhd 1583311593 \
      FL E:/schule/BHEL4/LAB/ekg/ekg_audio/ekg_audio_tb.vhd \
      PB ieee/std_logic_1164 1194562354 PB ieee/STD_LOGIC_UNSIGNED 1194562362 \
      PB ieee/NUMERIC_STD 1194562368
AR work/ekg_audio_tb_vhd/behavior 1583311594 \
      FL E:/schule/BHEL4/LAB/ekg/ekg_audio/ekg_audio_tb.vhd \
      EN work/ekg_audio_tb_vhd 1583311593 CP ekg_audio
